<?xml version="1.0" encoding="UTF-8" standalone="no"?>
<!-- Created with Inkscape (http://www.inkscape.org/) -->

<svg
   xmlns:dc="http://purl.org/dc/elements/1.1/"
   xmlns:cc="http://creativecommons.org/ns#"
   xmlns:rdf="http://www.w3.org/1999/02/22-rdf-syntax-ns#"
   xmlns:svg="http://www.w3.org/2000/svg"
   xmlns="http://www.w3.org/2000/svg"
   xmlns:sodipodi="http://sodipodi.sourceforge.net/DTD/sodipodi-0.dtd"
   xmlns:inkscape="http://www.inkscape.org/namespaces/inkscape"
   width="64px"
   height="64px"
   id="svg2985"
   version="1.1"
   inkscape:version="0.48.4 r9939"
   sodipodi:docname="New document 2">
  <defs
     id="defs2987" />
  <sodipodi:namedview
     id="base"
     pagecolor="#ffffff"
     bordercolor="#666666"
     borderopacity="1.0"
     inkscape:pageopacity="0.0"
     inkscape:pageshadow="2"
     inkscape:zoom="1.4142136"
     inkscape:cx="50.811934"
     inkscape:cy="78.84882"
     inkscape:current-layer="layer1"
     showgrid="true"
     inkscape:document-units="px"
     inkscape:grid-bbox="true"
     inkscape:window-width="1366"
     inkscape:window-height="744"
     inkscape:window-x="0"
     inkscape:window-y="24"
     inkscape:window-maximized="1" />
  <metadata
     id="metadata2990">
    <rdf:RDF>
      <cc:Work
         rdf:about="">
        <dc:format>image/svg+xml</dc:format>
        <dc:type
           rdf:resource="http://purl.org/dc/dcmitype/StillImage" />
        <dc:title></dc:title>
      </cc:Work>
    </rdf:RDF>
  </metadata>
  <g
     id="layer1"
     inkscape:label="Layer 1"
     inkscape:groupmode="layer">
    <path
       sodipodi:type="arc"
       style="fill:#d7d7f4;fill-rule:evenodd;stroke:none;stroke-width:10;stroke-linecap:butt;stroke-linejoin:miter;stroke-opacity:1;stroke-miterlimit:4;stroke-dasharray:none"
       id="path2993"
       sodipodi:cx="32.18182"
       sodipodi:cy="32.18182"
       sodipodi:rx="30.545454"
       sodipodi:ry="30.545454"
       d="m 62.727274,32.18182 a 30.545454,30.545454 0 1 1 -61.0909081,0 30.545454,30.545454 0 1 1 61.0909081,0 z"
       transform="translate(-0.18181992,-0.18181992)" />
    <g
       style="font-size:49.89497757px;font-style:normal;font-weight:normal;line-height:125%;letter-spacing:0px;word-spacing:0px;fill:#212178;fill-opacity:1;stroke:none;font-family:Sans"
       id="text2995">
      <path
         d="m 44.656464,24.423173 c -2.7e-5,1.071987 -0.146204,2.014013 -0.43853,2.826083 -0.276138,0.812114 -0.6497,1.542997 -1.120688,2.192651 -0.471039,0.633451 -1.00702,1.210037 -1.607943,1.729757 -0.600973,0.503515 -1.218162,0.98265 -1.851572,1.437404 -0.633454,0.454789 -1.258765,0.901439 -1.875934,1.339953 -0.600969,0.438545 -1.14507,0.909559 -1.632306,1.413042 -0.487274,0.487269 -0.885199,1.03137 -1.193777,1.632306 -0.308612,0.584719 -0.479152,1.266876 -0.511618,2.046474 l -6.504863,0 c 0.0812,-1.380546 0.373552,-2.558079 0.87706,-3.532604 0.519727,-0.990738 1.145038,-1.851555 1.875935,-2.582455 0.730869,-0.730866 1.510477,-1.380539 2.338827,-1.949022 0.828317,-0.584688 1.591684,-1.177515 2.290101,-1.778483 0.714623,-0.600928 1.299329,-1.250602 1.754121,-1.949023 0.470993,-0.714619 0.706499,-1.559194 0.70652,-2.533729 -2.1e-5,-1.429257 -0.471034,-2.558065 -1.413041,-3.386427 -0.925804,-0.828306 -2.249514,-1.242472 -3.971134,-1.242502 -0.828349,3e-5 -1.591715,0.129964 -2.290101,0.389805 -0.698412,0.243656 -1.315602,0.592856 -1.851572,1.047599 -0.51975,0.4548 -0.950158,1.007022 -1.291227,1.65667 -0.341089,0.649699 -0.560353,1.36434 -0.657795,2.143924 l -6.943393,-0.292353 c 0.1949,-1.445499 0.592825,-2.801693 1.193776,-4.068585 0.617187,-1.266835 1.453641,-2.37128 2.509367,-3.313338 1.055713,-0.941995 2.34694,-1.689119 3.873682,-2.241376 1.542965,-0.552188 3.329567,-0.8283 5.359812,-0.828334 1.949006,3.4e-5 3.686882,0.22742 5.213636,0.682157 1.526712,0.454806 2.817938,1.112601 3.873682,1.973386 1.071937,0.844608 1.884029,1.875964 2.436278,3.094073 0.568438,1.218167 0.85267,2.582481 0.852697,4.092947 m -16.932133,24.996215 0,-6.577951 7.040844,0 0,6.577951 -7.040844,0"
         style="font-variant:normal;font-weight:bold;font-stretch:normal;fill:#212178;font-family:Liberation Sans;-inkscape-font-specification:Liberation Sans Bold"
         id="path3768" />
    </g>
  </g>
</svg>
