<?xml version="1.0" encoding="UTF-8" standalone="no"?>
<svg
   xmlns:dc="http://purl.org/dc/elements/1.1/"
   xmlns:cc="http://creativecommons.org/ns#"
   xmlns:rdf="http://www.w3.org/1999/02/22-rdf-syntax-ns#"
   xmlns:svg="http://www.w3.org/2000/svg"
   xmlns="http://www.w3.org/2000/svg"
   xmlns:sodipodi="http://sodipodi.sourceforge.net/DTD/sodipodi-0.dtd"
   xmlns:inkscape="http://www.inkscape.org/namespaces/inkscape"
   version="1.1"
   id="Layer_2"
   x="0px"
   y="0px"
   width="100px"
   height="100px"
   viewBox="0 0 100 100"
   enable-background="new 0 0 100 100"
   xml:space="preserve"
   inkscape:version="0.48.4 r9939"
   sodipodi:docname="flask.svg"
   inkscape:export-filename="C:\Users\wilkie\occam\experiment_large.png"
   inkscape:export-xdpi="86.400002"
   inkscape:export-ydpi="86.400002"><metadata
   id="metadata17"><rdf:RDF><cc:Work
       rdf:about=""><dc:format>image/svg+xml</dc:format><dc:type
         rdf:resource="http://purl.org/dc/dcmitype/StillImage" /><dc:title></dc:title></cc:Work></rdf:RDF></metadata><defs
   id="defs15"><marker
     inkscape:stockid="TriangleInL"
     orient="auto"
     refY="0.0"
     refX="0.0"
     id="TriangleInL"
     style="overflow:visible"><path
       id="path3916"
       d="M 5.77,0.0 L -2.88,5.0 L -2.88,-5.0 L 5.77,0.0 z "
       style="fill-rule:evenodd;stroke:#000000;stroke-width:1.0pt"
       transform="scale(-0.8)" /></marker><marker
     inkscape:stockid="Arrow2Lstart"
     orient="auto"
     refY="0.0"
     refX="0.0"
     id="Arrow2Lstart"
     style="overflow:visible"><path
       id="path3801"
       style="fill-rule:evenodd;stroke-width:0.62500000;stroke-linejoin:round"
       d="M 8.7185878,4.0337352 L -2.2072895,0.016013256 L 8.7185884,-4.0017078 C 6.9730900,-1.6296469 6.9831476,1.6157441 8.7185878,4.0337352 z "
       transform="scale(1.1) translate(1,0)" /></marker><marker
     inkscape:stockid="Arrow1Lstart"
     orient="auto"
     refY="0.0"
     refX="0.0"
     id="Arrow1Lstart"
     style="overflow:visible"><path
       id="path3783"
       d="M 0.0,0.0 L 5.0,-5.0 L -12.5,0.0 L 5.0,5.0 L 0.0,0.0 z "
       style="fill-rule:evenodd;stroke:#000000;stroke-width:1.0pt"
       transform="scale(0.8) translate(12.5,0)" /></marker></defs><sodipodi:namedview
   pagecolor="#ffffff"
   bordercolor="#666666"
   borderopacity="1"
   objecttolerance="10"
   gridtolerance="10"
   guidetolerance="10"
   inkscape:pageopacity="0"
   inkscape:pageshadow="2"
   inkscape:window-width="1920"
   inkscape:window-height="1058"
   id="namedview13"
   showgrid="false"
   inkscape:zoom="2.8284271"
   inkscape:cx="64.050082"
   inkscape:cy="19.732749"
   inkscape:window-x="-8"
   inkscape:window-y="-8"
   inkscape:window-maximized="1"
   inkscape:current-layer="Layer_2" />
<path
   d="m 82.733287,98.871054 c 0.02759,-0.05076 0.05959,-0.09932 0.08167,-0.151191 0.032,-0.07063 0.05297,-0.146775 0.07504,-0.221819 0.01986,-0.05849 0.04194,-0.114772 0.05408,-0.173261 0.01545,-0.06621 0.02207,-0.134637 0.02869,-0.204162 0.0099,-0.07284 0.02207,-0.146776 0.02318,-0.220716 0,-0.01655 0.0033,-0.0298 0.0033,-0.04525 0,-0.05076 -0.01214,-0.09932 -0.01435,-0.150086 -0.0066,-0.07504 -0.0099,-0.152294 -0.02318,-0.228441 -0.01324,-0.07063 -0.03311,-0.140154 -0.05297,-0.208576 -0.01986,-0.06511 -0.03531,-0.129119 -0.0607,-0.192023 -0.0298,-0.07725 -0.06842,-0.148983 -0.107048,-0.219612 -0.02317,-0.04194 -0.03421,-0.08498 -0.0607,-0.124704 L 60.517158,56.567597 V 34.938571 c 0,-1.185242 -0.961216,-2.146459 -2.145356,-2.146459 -1.184139,0 -2.146459,0.961217 -2.146459,2.146459 v 21.955685 c 0,0.02869 0.0077,0.05628 0.0088,0.08387 -0.02649,0.428188 0.06842,0.868516 0.309002,1.26139 l 20.67777,37.467579 H 22.7781 L 43.455842,58.238414 c 0.241683,-0.39177 0.336591,-0.833201 0.309002,-1.261389 0.0011,-0.02759 0.0088,-0.05518 0.0088,-0.08387 V 34.938571 c 0,-1.185242 -0.961216,-2.146459 -2.146459,-2.146459 -1.184139,0 -2.145356,0.961217 -2.145356,2.146459 V 56.567597 L 17.317596,96.730112 c -0.620211,1.009774 -0.305691,2.330757 0.704083,2.950968 0.381838,0.235062 0.808923,0.33549 1.224972,0.31452 0.01214,0 0.02207,0.0044 0.03311,0.0044 H 80.85279 c 0.05187,0 0.09712,-0.01104 0.146776,-0.01545 0.07725,-0.0055 0.154501,-0.0099 0.230648,-0.02317 0.07284,-0.01324 0.142362,-0.03311 0.212991,-0.05408 0.06401,-0.01876 0.124704,-0.03421 0.186504,-0.05849 0.08167,-0.0309 0.158916,-0.07063 0.235063,-0.112565 0.03531,-0.02207 0.07504,-0.032 0.111461,-0.05628 0.01214,-0.0066 0.01986,-0.01545 0.0298,-0.02207 0.07504,-0.04966 0.143466,-0.105944 0.210784,-0.161123 0.04304,-0.03421 0.08718,-0.06732 0.124704,-0.103736 0.05959,-0.05628 0.107047,-0.118083 0.158915,-0.180987 0.03752,-0.04525 0.07835,-0.08718 0.112565,-0.13574 0.04745,-0.06401 0.08387,-0.13574 0.12029,-0.205265 z"
   id="path3"
   style="fill:#2da0b7;fill-opacity:1"
   inkscape:connector-curvature="0" />
<path
   d="m 58.190816,8.5431921 c -4.243258,0.028693 -7.659935,3.4917209 -7.631242,7.7360819 0.02759,4.244361 3.49172,7.661039 7.736082,7.632346 4.243257,-0.02869 7.659935,-3.492825 7.631242,-7.737186 -0.02869,-4.243257 -3.491721,-7.659935 -7.736082,-7.6312419 z m 0.08829,12.9880099 c -2.927793,0.01986 -5.318143,-2.338482 -5.339111,-5.266274 -0.02097,-2.928897 2.337379,-5.319247 5.266275,-5.340215 2.928896,-0.01986 5.319246,2.339586 5.33911,5.267378 0.02097,2.927793 -2.338482,5.319246 -5.266274,5.339111 z"
   id="path5"
   style="fill:#2da0b7;fill-opacity:1"
   inkscape:connector-curvature="0" />
<path
   d="m 74.292019,0.67799145 c -3.005043,0.020968 -5.422982,2.47201475 -5.403118,5.47705775 0.02207,3.0039394 2.472015,5.4229828 5.475954,5.4020148 3.005043,-0.01986 5.422983,-2.4720151 5.403118,-5.4759545 -0.01986,-3.005043 -2.473118,-5.42298245 -5.475954,-5.40311805 z M 74.354919,9.8719 c -2.074727,0.014347 -3.765408,-1.655367 -3.780858,-3.7289902 -0.01435,-2.0725195 1.655367,-3.7654082 3.72899,-3.7797547 2.073623,-0.014347 3.765408,1.655367 3.779755,3.7278866 0.01435,2.0736231 -1.655367,3.7665118 -3.727887,3.7808583 z"
   id="path7"
   style="fill:#2da0b7;fill-opacity:1"
   inkscape:connector-curvature="0" />
<path
   d="m 75.509266,19.539244 c -1.574806,0.01103 -2.841714,1.2956 -2.830678,2.870406 0.01104,1.574806 1.296704,2.84061 2.87151,2.830678 1.573702,-0.01104 2.84061,-1.295601 2.829574,-2.869303 -0.01104,-1.57591 -1.295601,-2.842817 -2.870406,-2.831781 z m 0.03421,4.817118 c -1.087025,0.0066 -1.973198,-0.867413 -1.980923,-1.954437 -0.0077,-1.085921 0.867412,-1.973198 1.954437,-1.979819 1.087024,-0.0066 1.973197,0.867412 1.980922,1.954437 0.0077,1.087024 -0.869619,1.972094 -1.954436,1.979819 z"
   id="path9"
   style="fill:#2da0b7;fill-opacity:1"
   inkscape:connector-curvature="0" />
<polygon
   points="29.716,88.936 45.123,61.015 54.876,61.015 70.283,88.936 "
   id="polygon11"
   style="fill:#5ec2da;fill-opacity:1"
   transform="matrix(1.103578,0,0,1.103578,-5.1788419,-4.8398987)"
   inkscape:export-xdpi="86.400002"
   inkscape:export-ydpi="86.400002" />
<g
   id="g4781"
   transform="matrix(2.7194754,0,0,2.7194754,-8.396858,-80.427152)"
   style="fill:#207080;fill-opacity:1;stroke:none;color:#000000;fill-rule:evenodd;marker:none;visibility:visible;display:inline;overflow:visible;enable-background:accumulate"><path
     style="font-size:medium;font-style:normal;font-variant:normal;font-weight:normal;font-stretch:normal;text-indent:0;text-align:start;text-decoration:none;line-height:normal;letter-spacing:normal;word-spacing:normal;text-transform:none;direction:ltr;block-progression:tb;writing-mode:lr-tb;text-anchor:start;baseline-shift:baseline;color:#000000;fill:#207080;fill-opacity:1;stroke:none;stroke-width:0.94800001000000000;marker:none;visibility:visible;display:inline;overflow:visible;enable-background:accumulate;font-family:Sans;-inkscape-font-specification:Sans;fill-rule:evenodd"
     d="m 8.9375,44.970339 0,2.049788 5.71031,0 0,-2.049788 z"
     id="path3777"
     inkscape:connector-curvature="0"
     sodipodi:nodetypes="ccccc" /><path
     style="fill-rule:evenodd;stroke:none;stroke-width:0.75840001000000001pt;fill:#207080;fill-opacity:1;color:#000000;marker:none;visibility:visible;display:inline;overflow:visible;enable-background:accumulate"
     d="m 4.5577213,45.974576 6.5601597,-3.792 0,7.584 -6.5601597,-3.792 z"
     id="path4787"
     inkscape:connector-curvature="0" /></g><g
   style="color:#000000;fill:#207080;fill-opacity:1;fill-rule:evenodd;stroke:none;marker:none;visibility:visible;display:inline;overflow:visible;enable-background:accumulate"
   transform="matrix(-2.7194754,0,0,2.7194754,107.83211,-80.427152)"
   id="g4810"><path
     sodipodi:nodetypes="ccccc"
     inkscape:connector-curvature="0"
     id="path4812"
     d="m 8.9375,44.970339 0,2.049788 5.71031,0 0,-2.049788 z"
     style="font-size:medium;font-style:normal;font-variant:normal;font-weight:normal;font-stretch:normal;text-indent:0;text-align:start;text-decoration:none;line-height:normal;letter-spacing:normal;word-spacing:normal;text-transform:none;direction:ltr;block-progression:tb;writing-mode:lr-tb;text-anchor:start;baseline-shift:baseline;color:#000000;fill:#207080;fill-opacity:1;fill-rule:evenodd;stroke:none;stroke-width:0.94800001000000000;marker:none;visibility:visible;display:inline;overflow:visible;enable-background:accumulate;font-family:Sans;-inkscape-font-specification:Sans" /><path
     inkscape:connector-curvature="0"
     id="path4814"
     d="m 4.5577213,45.974576 6.5601597,-3.792 0,7.584 -6.5601597,-3.792 z"
     style="color:#000000;fill:#207080;fill-opacity:1;fill-rule:evenodd;stroke:none;stroke-width:0.75840001000000001pt;marker:none;visibility:visible;display:inline;overflow:visible;enable-background:accumulate" /></g></svg>