<?xml version="1.0" encoding="UTF-8" standalone="no"?>
<!-- Created with Inkscape (http://www.inkscape.org/) -->

<svg
   xmlns:dc="http://purl.org/dc/elements/1.1/"
   xmlns:cc="http://creativecommons.org/ns#"
   xmlns:rdf="http://www.w3.org/1999/02/22-rdf-syntax-ns#"
   xmlns:svg="http://www.w3.org/2000/svg"
   xmlns="http://www.w3.org/2000/svg"
   xmlns:sodipodi="http://sodipodi.sourceforge.net/DTD/sodipodi-0.dtd"
   xmlns:inkscape="http://www.inkscape.org/namespaces/inkscape"
   width="64px"
   height="64px"
   id="svg7789"
   version="1.1"
   inkscape:version="0.91 r13725"
   inkscape:export-filename="Z:\projects\occam\Large-Icons\error_large.png"
   inkscape:export-xdpi="135"
   inkscape:export-ydpi="135"
   sodipodi:docname="login.svg">
  <defs
     id="defs7791" />
  <sodipodi:namedview
     id="base"
     pagecolor="#ffffff"
     bordercolor="#666666"
     borderopacity="1.0"
     inkscape:pageopacity="0.0"
     inkscape:pageshadow="2"
     inkscape:zoom="0.99999999"
     inkscape:cx="494.14356"
     inkscape:cy="-154.21001"
     inkscape:current-layer="layer1"
     showgrid="true"
     inkscape:document-units="px"
     inkscape:grid-bbox="true"
     inkscape:window-width="1920"
     inkscape:window-height="1176"
     inkscape:window-x="0"
     inkscape:window-y="24"
     inkscape:window-maximized="1" />
  <metadata
     id="metadata7794">
    <rdf:RDF>
      <cc:Work
         rdf:about="">
        <dc:format>image/svg+xml</dc:format>
        <dc:type
           rdf:resource="http://purl.org/dc/dcmitype/StillImage" />
        <dc:title></dc:title>
      </cc:Work>
    </rdf:RDF>
  </metadata>
  <g
     id="layer1"
     inkscape:label="Layer 1"
     inkscape:groupmode="layer">
    <path
       inkscape:connector-curvature="0"
       id="path3403"
       d="m 7.7062608,54.269261 0,3.760131 c 0,2.396308 1.9772405,4.337782 4.4167362,4.337782 l 39.754006,0 c 2.439495,0 4.416736,-1.941474 4.416736,-4.337782 l 0,-3.760131 -4.048956,0 0,-4.048956 4.048956,0 0,-4.048957 -4.048956,0 0,-4.048957 4.048956,0 0,-4.048956 -4.048956,0 0,-4.048956 4.048956,0 0,-2.024479 c 0,-2.396307 -1.60946,-4.048956 -4.048956,-4.048956 l -2.024479,0 c 0.0081,-1.949572 0,-3.64946 0,-6.073435 C 50.220304,12.063613 43.11911,1.6328263 32,1.6328263 c -11.553698,0 -18.220305,10.4307867 -18.220305,20.2447827 0,2.426 0,4.123863 0,6.073435 l -2.024478,0 c -2.4394958,0 -4.0489562,1.652649 -4.0489562,4.048956 l 0,2.024479 4.0489562,0 0,4.048956 -4.0489562,0 0,4.048956 4.0489562,0 0,4.048957 -4.0489562,0 0,4.048957 4.0489562,0 0,4.048956 -4.0489562,0 z m 18.2203042,0 3.999694,-9.784304 c -1.388117,-0.731511 -2.342995,-2.152695 -2.342995,-3.808043 0,-2.396308 1.97724,-4.339807 4.416736,-4.339807 2.439496,0 4.416736,1.943499 4.416736,4.339807 0,1.654673 -0.954878,3.076532 -2.342996,3.808043 l 3.999695,9.784304 -12.14687,0 z M 19.85313,21.877609 c 0,-6.180057 4.068527,-14.1713479 12.14687,-14.1713479 8.042577,0 12.146869,7.9912909 12.146869,14.1713479 0,2.423975 0.05331,4.123863 0,6.073435 l -24.293739,0 c 0.03374,-2.081839 0,-3.833687 0,-6.073435 z"
       style="fill:#2da0b7;fill-opacity:1" />
    <text
       x="0.8691085"
       y="72.574242"
       font-size="5px"
       font-weight="bold"
       id="text3405"
       style="font-weight:bold;font-size:3.13801932px;font-family:'Helvetica Neue', Helvetica, Arial-Unicode, Arial, Sans-serif;fill:#000000">Created by Claudio Gomboli</text>
    <text
       x="0.8691085"
       y="75.712257"
       font-size="5px"
       font-weight="bold"
       id="text3407"
       style="font-weight:bold;font-size:3.13801932px;font-family:'Helvetica Neue', Helvetica, Arial-Unicode, Arial, Sans-serif;fill:#000000">from the Noun Project</text>
  </g>
</svg>
