<?xml version="1.0" encoding="UTF-8" standalone="no"?>
<svg
   xmlns:dc="http://purl.org/dc/elements/1.1/"
   xmlns:cc="http://creativecommons.org/ns#"
   xmlns:rdf="http://www.w3.org/1999/02/22-rdf-syntax-ns#"
   xmlns:svg="http://www.w3.org/2000/svg"
   xmlns="http://www.w3.org/2000/svg"
   xmlns:sodipodi="http://sodipodi.sourceforge.net/DTD/sodipodi-0.dtd"
   xmlns:inkscape="http://www.inkscape.org/namespaces/inkscape"
   width="22"
   height="22"
   viewBox="0 0 22 22"
   version="1.1"
   id="svg2"
   inkscape:version="0.48.4 r9939"
   sodipodi:docname="ranged_group_large.svg"
   inkscape:export-filename="C:\Users\wilkie\occam\ranged_group.png"
   inkscape:export-xdpi="94.090912"
   inkscape:export-ydpi="94.090912">
  <metadata
     id="metadata14">
    <rdf:RDF>
      <cc:Work
         rdf:about="">
        <dc:format>image/svg+xml</dc:format>
        <dc:type
           rdf:resource="http://purl.org/dc/dcmitype/StillImage" />
        <dc:title>album_collection</dc:title>
      </cc:Work>
    </rdf:RDF>
  </metadata>
  <sodipodi:namedview
     pagecolor="#ffffff"
     bordercolor="#666666"
     borderopacity="1"
     objecttolerance="10"
     gridtolerance="10"
     guidetolerance="10"
     inkscape:pageopacity="0"
     inkscape:pageshadow="2"
     inkscape:window-width="1920"
     inkscape:window-height="1058"
     id="namedview12"
     showgrid="false"
     inkscape:zoom="8"
     inkscape:cx="40.869471"
     inkscape:cy="1.0317234"
     inkscape:window-x="-8"
     inkscape:window-y="-8"
     inkscape:window-maximized="1"
     inkscape:current-layer="svg2" />
  <title
     id="title4">album_collection</title>
  <description
     id="description6">Created with Sketch (http://www.bohemiancoding.com/sketch)</description>
  <defs
     id="defs8" />
  <path
     style="fill:#237d8d;fill-opacity:1;fill-rule:evenodd;stroke:none"
     d="M 1 4 L 1 5 L 21 5 L 21 4 L 1 4 z M 0.125 6 C 0.0474108 6 0 6.0541446 0 6.125 L 0 21.875 C 0 21.946129 0.04762268 22 0.125 22 L 21.875 22 C 21.952589 22 22 21.945855 22 21.875 L 22 6.125 C 22 6.0538706 21.952378 6 21.875 6 L 0.125 6 z "
     id="album_collection" />
  <path
     inkscape:connector-curvature="0"
     d="m 17.406257,20.300014 c 0.0054,-0.0099 0.01176,-0.01942 0.01591,-0.02959 0.0064,-0.01379 0.01031,-0.02871 0.01475,-0.04342 0.0039,-0.01147 0.0081,-0.02247 0.0106,-0.03391 0.003,-0.01292 0.0042,-0.02635 0.0057,-0.03995 0.0019,-0.01423 0.0042,-0.02871 0.0045,-0.0432 0,-0.0033 6.48e-4,-0.0058 6.48e-4,-0.0089 0,-0.0099 -0.0023,-0.01942 -0.0028,-0.02937 -0.0013,-0.01475 -0.0019,-0.02979 -0.0045,-0.0447 -0.0026,-0.01379 -0.0065,-0.02744 -0.01031,-0.04082 -0.0039,-0.01263 -0.007,-0.02527 -0.0119,-0.03758 -0.0058,-0.01521 -0.01336,-0.02916 -0.02106,-0.04297 -0.0045,-0.0081 -0.0068,-0.01662 -0.0119,-0.02442 l -4.337722,-7.86039 V 7.7878661 c 0,-0.2319651 -0.188128,-0.4200788 -0.419864,-0.4200788 -0.231754,0 -0.42008,0.1881282 -0.42008,0.4200788 v 4.2969029 c 0,0.0057 0.0015,0.01103 0.0017,0.01639 -0.0051,0.08379 0.01336,0.169989 0.06048,0.246864 l 4.0468,7.332707 H 5.6725548 l 4.046801,-7.332922 c 0.047296,-0.07668 0.065878,-0.163062 0.060478,-0.246864 2.163e-4,-0.0054 0.00174,-0.01074 0.00174,-0.01639 V 7.7878661 c 0,-0.2319651 -0.1881282,-0.4200788 -0.4200792,-0.4200788 -0.2317546,0 -0.419864,0.1881282 -0.419864,0.4200788 v 4.2329729 l -4.3377234,7.860128 c -0.1213763,0.19763 -0.059824,0.456148 0.1377805,0.57753 0.074733,0.04602 0.158309,0.06565 0.2397375,0.06155 0.00232,0 0.00421,8.64e-4 0.00653,8.64e-4 H 17.038298 c 0.01002,0 0.01896,-0.0022 0.02871,-0.003 0.01521,-0.0011 0.03024,-0.0019 0.04515,-0.0045 0.01423,-0.0026 0.02786,-0.0065 0.04168,-0.0106 0.01263,-0.0038 0.02442,-0.0068 0.03651,-0.01147 0.01591,-0.0061 0.03111,-0.01379 0.04602,-0.02201 0.007,-0.0042 0.01475,-0.0064 0.02176,-0.01103 0.0023,-0.0013 0.0039,-0.003 0.0058,-0.0042 0.01475,-0.0099 0.02809,-0.02083 0.04126,-0.03153 0.0084,-0.0068 0.01709,-0.01307 0.02442,-0.02037 0.01176,-0.01103 0.02106,-0.02317 0.03111,-0.03541 0.0073,-0.0089 0.01545,-0.01709 0.02199,-0.02657 0.0093,-0.01263 0.01639,-0.02657 0.02355,-0.04017 z"
     id="path3"
     style="fill:#ffffff" />
  <polygon
     transform="matrix(0.16225611,0,0,0.16225611,2.8872671,4.030854)"
     points="70.283,88.936 29.716,88.936 45.123,61.015 54.876,61.015 "
     id="polygon11"
     style="fill:#ffffff" />
  <g
     id="g4781"
     transform="matrix(0.63280528,0,0,0.63280528,-1.5789795,-18.334136)"
     style="color:#000000;fill:#ffffff;fill-opacity:1;fill-rule:evenodd;stroke:none;marker:none;visibility:visible;display:inline;overflow:visible;enable-background:accumulate">
    <path
       style="font-size:medium;font-style:normal;font-variant:normal;font-weight:normal;font-stretch:normal;text-indent:0;text-align:start;text-decoration:none;line-height:normal;letter-spacing:normal;word-spacing:normal;text-transform:none;direction:ltr;block-progression:tb;writing-mode:lr-tb;text-anchor:start;baseline-shift:baseline;color:#000000;fill:#ffffff;fill-opacity:1;fill-rule:evenodd;stroke:none;stroke-width:0.94800001;marker:none;visibility:visible;display:inline;overflow:visible;enable-background:accumulate;font-family:Sans;-inkscape-font-specification:Sans"
       d="m 8.9375,44.970339 0,2.049788 5.71031,0 0,-2.049788 z"
       id="path3777"
       inkscape:connector-curvature="0"
       sodipodi:nodetypes="ccccc" />
    <path
       style="color:#000000;fill:#ffffff;fill-opacity:1;fill-rule:evenodd;stroke:none;stroke-width:0.75840001pt;marker:none;visibility:visible;display:inline;overflow:visible;enable-background:accumulate"
       d="m 4.5577213,45.974576 6.5601597,-3.792 0,7.584 -6.5601597,-3.792 z"
       id="path4787"
       inkscape:connector-curvature="0" />
  </g>
  <g
     style="color:#000000;fill:#ffffff;fill-opacity:1;fill-rule:evenodd;stroke:none;marker:none;visibility:visible;display:inline;overflow:visible;enable-background:accumulate"
     transform="matrix(-0.63280528,0,0,0.63280528,23.578979,-18.334136)"
     id="g4810">
    <path
       sodipodi:nodetypes="ccccc"
       inkscape:connector-curvature="0"
       id="path4812"
       d="m 8.9375,44.970339 0,2.049788 5.71031,0 0,-2.049788 z"
       style="font-size:medium;font-style:normal;font-variant:normal;font-weight:normal;font-stretch:normal;text-indent:0;text-align:start;text-decoration:none;line-height:normal;letter-spacing:normal;word-spacing:normal;text-transform:none;direction:ltr;block-progression:tb;writing-mode:lr-tb;text-anchor:start;baseline-shift:baseline;color:#000000;fill:#ffffff;fill-opacity:1;fill-rule:evenodd;stroke:none;stroke-width:0.94800001;marker:none;visibility:visible;display:inline;overflow:visible;enable-background:accumulate;font-family:Sans;-inkscape-font-specification:Sans" />
    <path
       inkscape:connector-curvature="0"
       id="path4814"
       d="m 4.5577213,45.974576 6.5601597,-3.792 0,7.584 -6.5601597,-3.792 z"
       style="color:#000000;fill:#ffffff;fill-opacity:1;fill-rule:evenodd;stroke:none;stroke-width:0.75840001pt;marker:none;visibility:visible;display:inline;overflow:visible;enable-background:accumulate" />
  </g>
</svg>
