<?xml version="1.0" encoding="UTF-8" standalone="no"?>
<svg
   xmlns:dc="http://purl.org/dc/elements/1.1/"
   xmlns:cc="http://creativecommons.org/ns#"
   xmlns:rdf="http://www.w3.org/1999/02/22-rdf-syntax-ns#"
   xmlns:svg="http://www.w3.org/2000/svg"
   xmlns="http://www.w3.org/2000/svg"
   xmlns:sodipodi="http://sodipodi.sourceforge.net/DTD/sodipodi-0.dtd"
   xmlns:inkscape="http://www.inkscape.org/namespaces/inkscape"
   width="22"
   height="22"
   viewBox="0 0 22 22"
   version="1.1"
   id="svg2"
   inkscape:version="0.91 r13725"
   sodipodi:docname="viewer_large.svg"
   inkscape:export-filename="Z:\projects\occam\Large-Icons\group_large.png"
   inkscape:export-xdpi="392.72726"
   inkscape:export-ydpi="392.72726">
  <metadata
     id="metadata14">
    <rdf:RDF>
      <cc:Work
         rdf:about="">
        <dc:format>image/svg+xml</dc:format>
        <dc:type
           rdf:resource="http://purl.org/dc/dcmitype/StillImage" />
        <dc:title>album_collection</dc:title>
      </cc:Work>
    </rdf:RDF>
  </metadata>
  <sodipodi:namedview
     pagecolor="#ffffff"
     bordercolor="#666666"
     borderopacity="1"
     objecttolerance="10"
     gridtolerance="10"
     guidetolerance="10"
     inkscape:pageopacity="0"
     inkscape:pageshadow="2"
     inkscape:window-width="1920"
     inkscape:window-height="1176"
     id="namedview12"
     showgrid="false"
     inkscape:zoom="16.697363"
     inkscape:cx="-5.5934733"
     inkscape:cy="-1.5315378"
     inkscape:window-x="0"
     inkscape:window-y="24"
     inkscape:window-maximized="1"
     inkscape:current-layer="svg2" />
  <title
     id="title4">album_collection</title>
  <description
     id="description6">Created with Sketch (http://www.bohemiancoding.com/sketch)</description>
  <path
     style="opacity:1;fill:#2da0b7;fill-opacity:1;stroke:none"
     d="m 10.705312,1.8104883 a 3.4393718,3.4393718 0 0 0 -3.4404736,3.440475 3.4393718,3.4393718 0 0 0 0.012752,0.2575893 C 9.5531608,5.2178147 11.94441,5.2122082 14.133036,5.4702964 a 3.4393718,3.4393718 0 0 0 0.01021,-0.2193335 3.4393718,3.4393718 0 0 0 -3.437926,-3.440475 z m 0.0051,0.3545042 c 0.237779,5.746e-4 0.474608,0.059549 0.890085,0.1708758 l -0.270341,1.63735 -1.219085,0 -0.3009748,-1.63735 C 10.234183,2.2222426 10.472634,2.1644176 10.710414,2.1649925 Z M 8.631847,3.014272 9.9146931,4.0675827 9.3051498,5.1234438 7.7366604,4.5649086 C 7.9639122,3.7167933 8.0235451,3.6225737 8.631847,3.014272 Z m 4.146932,0 c 0.620863,0.6208632 0.672534,0.719681 0.895187,1.5506366 L 12.12078,5.151498 11.511237,4.0956369 12.778779,3.014272 Z"
     id="path5059"
     inkscape:connector-curvature="0" />
  <defs
     id="defs8" />
  <path
     style="fill:#2da0b7;fill-opacity:1;fill-rule:evenodd;stroke:none;stroke-width:1px;stroke-linecap:butt;stroke-linejoin:miter;stroke-opacity:1"
     d="M 10.904244,6.7021347 C 8.2565589,6.6999259 5.5526473,7.002959 3.1536111,7.6457787 L 1.0775942,13.753961 c 2.7227184,1.571966 16.5578308,1.578944 19.2528878,0.02295 L 18.318225,7.5947709 C 16.143084,7.0119438 13.551929,6.7043437 10.904244,6.7021347 Z M 7.5606836,9.1760122 c 0.7298435,0.038858 1.3793397,0.2037746 2.0250094,0.3749071 l 0,2.5376367 c -1.3975649,0.260349 -2.8541921,0.381749 -4.5269412,0 l 0,-2.5376367 C 6.0211365,9.2243556 6.83084,9.1371544 7.5606836,9.1760122 Z m 6.7202754,0 c 0.729843,0.038858 1.381894,0.2037746 2.027559,0.3749071 l 0,2.5376367 c -1.397558,0.260349 -2.856744,0.381749 -4.529491,0 l 0,-2.5376367 c 0.962384,-0.3265637 1.772089,-0.4137649 2.501932,-0.3749071 z"
     id="path5049"
     inkscape:connector-curvature="0" />
  <path
     style="fill:#2da0b7;fill-opacity:1;fill-rule:evenodd;stroke:none;stroke-width:1px;stroke-linecap:butt;stroke-linejoin:miter;stroke-opacity:1"
     d="m 18.579177,15.156444 -1.467289,2.908191 c -3.376771,1.94958 -9.3806998,1.900922 -12.6731914,0 L 2.8303903,15.122472 c 3.4312859,0.847733 12.5515917,0.890657 15.7487867,0.03396 z"
     id="path5051"
     inkscape:connector-curvature="0"
     sodipodi:nodetypes="ccccc" />
  <path
     style="fill:#2da0b7;fill-opacity:1;fill-rule:evenodd;stroke:none;stroke-width:1px;stroke-linecap:butt;stroke-linejoin:miter;stroke-opacity:1"
     d="m 17.233443,6.8189056 0,-1.8895978 -2.515361,-0.6739895 c -3.545689,0.9500649 -4.300804,0.9817323 -7.9646785,0 l -2.5772802,0.6905803 0,1.8325435 C 7.8744686,5.7874734 13.294165,5.7633785 17.233443,6.8189054 Z"
     id="path5617"
     inkscape:connector-curvature="0"
     sodipodi:nodetypes="ccccccc" />
  <path
     style="fill:#2da0b7;fill-opacity:1;fill-rule:evenodd;stroke:none;stroke-width:1px;stroke-linecap:butt;stroke-linejoin:miter;stroke-opacity:1"
     d="m 19.283862,9.6049125 0.381292,1.0052255 c 1.357096,-0.9985071 1.970376,-2.2945399 1.941125,-3.847586 -0.628968,0.3315267 -1.314446,0.4935216 -2.21843,0 0.380645,0.993599 0.347278,1.9411969 -0.103979,2.8423605 z"
     id="path5619"
     inkscape:connector-curvature="0"
     sodipodi:nodetypes="ccccc" />
  <circle
     style="opacity:1;fill:#2da0b7;fill-opacity:1;stroke:none"
     id="path5621"
     cx="20.514393"
     cy="5.3240399"
     r="1.3345231" />
  <path
     inkscape:connector-curvature="0"
     id="path5645"
     d="m -16.644063,4.7305827 a 2.6339208,2.6339208 0 0 0 -2.63392,2.6339209 2.6339208,2.6339208 0 0 0 0.0084,0.1964988 c 1.742664,-0.2226514 3.575037,-0.2269135 5.251119,-0.029266 a 2.6339208,2.6339208 0 0 0 0.0083,-0.1672335 2.6339208,2.6339208 0 0 0 -2.633904,-2.6339206 z"
     style="opacity:1;fill:#2da0b7;fill-opacity:1;stroke:none" />
  <path
     sodipodi:nodetypes="ccccc"
     inkscape:connector-curvature="0"
     id="path5647"
     d="m -24.016062,13.875735 1.589157,-4.6771517 c 3.674434,-0.9845614 8.282005,-0.931852 11.613514,-0.039177 l 1.5413313,4.7337257 c -2.0639143,1.191601 -12.6589053,1.186434 -14.7440023,-0.0174 z"
     style="fill:#2da0b7;fill-opacity:1;fill-rule:evenodd;stroke:none;stroke-width:1px;stroke-linecap:butt;stroke-linejoin:miter;stroke-opacity:1" />
  <path
     sodipodi:nodetypes="ccccc"
     inkscape:connector-curvature="0"
     id="path5649"
     d="m -10.613737,14.950307 -1.12367,2.227135 c -2.585981,1.493017 -7.183876,1.455753 -9.705314,0 l -1.231665,-2.253152 c 2.627729,0.649207 9.612191,0.682079 12.060649,0.02601 z"
     style="fill:#2da0b7;fill-opacity:1;fill-rule:evenodd;stroke:none;stroke-width:1px;stroke-linecap:butt;stroke-linejoin:miter;stroke-opacity:1" />
  <path
     sodipodi:nodetypes="ccccc"
     inkscape:connector-curvature="0"
     id="path5651"
     d="m -20.968085,10.65716 c 1.474016,-0.500174 2.478244,-0.262111 3.467169,0 l 0,1.943441 c -1.070274,0.199379 -2.186154,0.292349 -3.467169,0 z"
     style="opacity:1;fill:#ffffff;fill-opacity:1;stroke:none" />
  <path
     sodipodi:nodetypes="ccccc"
     inkscape:connector-curvature="0"
     id="path5653"
     d="m -17.329719,5.1312456 c 0.649499,-0.1740328 0.734954,-0.1705115 1.371311,0 l -0.20694,1.254248 -0.933779,0 z"
     style="opacity:1;fill:#ffffff;fill-opacity:1;stroke:none" />
  <path
     inkscape:transform-center-x="-1.4456644"
     inkscape:transform-center-y="-0.8909801"
     style="opacity:1;fill:#ffffff;fill-opacity:1;stroke:none"
     d="m -15.055768,5.6523847 c 0.475466,0.4754661 0.515144,0.5512323 0.685655,1.1875901 l -1.18968,0.4479081 -0.466891,-0.8086764 z"
     id="path5655"
     inkscape:connector-curvature="0"
     sodipodi:nodetypes="ccccc" />
  <path
     sodipodi:nodetypes="ccccc"
     inkscape:connector-curvature="0"
     id="path5657"
     d="m -18.918013,6.8399751 c 0.174033,-0.649499 0.219809,-0.721744 0.685656,-1.1875903 l 0.98274,0.8063396 -0.466889,0.808677 z"
     style="opacity:1;fill:#ffffff;fill-opacity:1;stroke:none"
     inkscape:transform-center-y="-0.9012208"
     inkscape:transform-center-x="1.4397523" />
  <path
     sodipodi:nodetypes="ccccccc"
     inkscape:connector-curvature="0"
     id="path5659"
     d="m -11.644319,8.5652992 0,-1.4470813 -1.9263,-0.5161509 c -2.71534,0.7275734 -3.293618,0.7518248 -6.099466,0 l -1.973719,0.5288563 0,1.4033884 c 2.832247,-0.7588982 6.982729,-0.7773504 9.999485,0.030988 z"
     style="fill:#2da0b7;fill-opacity:1;fill-rule:evenodd;stroke:none;stroke-width:1px;stroke-linecap:butt;stroke-linejoin:miter;stroke-opacity:1" />
  <path
     sodipodi:nodetypes="ccccc"
     inkscape:connector-curvature="0"
     id="path5661"
     d="m -10.074079,10.698864 0.2919993,0.769816 c 1.039284,-0.764671 1.508943,-1.7571919 1.486542,-2.9465371 -0.481673,0.2538879 -1.006622,0.3779459 -1.698905,0 0.291503,0.7609125 0.26595,1.4865971 -0.07963,2.1767211 z"
     style="fill:#2da0b7;fill-opacity:1;fill-rule:evenodd;stroke:none;stroke-width:1px;stroke-linecap:butt;stroke-linejoin:miter;stroke-opacity:1" />
  <circle
     r="1.0219972"
     cy="7.4205093"
     cx="-9.1317186"
     id="circle5663"
     style="opacity:1;fill:#2da0b7;fill-opacity:1;stroke:none" />
  <path
     style="opacity:1;fill:#ffffff;fill-opacity:1;stroke:none"
     d="m -15.820691,10.65716 c 1.474016,-0.500174 2.478244,-0.262111 3.467165,0 l 0,1.943441 c -1.070271,0.199379 -2.186151,0.292349 -3.467165,0 z"
     id="path5665"
     inkscape:connector-curvature="0"
     sodipodi:nodetypes="ccccc" />
</svg>
