<?xml version="1.0" encoding="UTF-8" standalone="no"?>
<svg
   xmlns:dc="http://purl.org/dc/elements/1.1/"
   xmlns:cc="http://creativecommons.org/ns#"
   xmlns:rdf="http://www.w3.org/1999/02/22-rdf-syntax-ns#"
   xmlns:svg="http://www.w3.org/2000/svg"
   xmlns="http://www.w3.org/2000/svg"
   xmlns:sodipodi="http://sodipodi.sourceforge.net/DTD/sodipodi-0.dtd"
   xmlns:inkscape="http://www.inkscape.org/namespaces/inkscape"
   version="1.1"
   id="Sprocket"
   x="0px"
   y="0px"
   width="100px"
   height="100px"
   viewBox="0 0 100 100"
   enable-background="new 0 0 100 100"
   xml:space="preserve"
   inkscape:version="0.91 r13725"
   sodipodi:docname="compiler.svg"
   inkscape:export-filename="C:\Users\wilkie\occam\benchmark_large.png"
   inkscape:export-xdpi="86.400002"
   inkscape:export-ydpi="86.400002"><metadata
     id="metadata11"><rdf:RDF><cc:Work
         rdf:about=""><dc:format>image/svg+xml</dc:format><dc:type
           rdf:resource="http://purl.org/dc/dcmitype/StillImage" /><dc:title></dc:title></cc:Work></rdf:RDF></metadata><defs
     id="defs9" /><sodipodi:namedview
     pagecolor="#ffffff"
     bordercolor="#666666"
     borderopacity="1"
     objecttolerance="10"
     gridtolerance="10"
     guidetolerance="10"
     inkscape:pageopacity="0"
     inkscape:pageshadow="2"
     inkscape:window-width="1920"
     inkscape:window-height="1057"
     id="namedview7"
     showgrid="false"
     inkscape:zoom="4"
     inkscape:cx="27.996142"
     inkscape:cy="40.034925"
     inkscape:window-x="-8"
     inkscape:window-y="-8"
     inkscape:window-maximized="1"
     inkscape:current-layer="Sprocket" /><path
     fill-rule="evenodd"
     clip-rule="evenodd"
     d="M-119.521,229.871c-0.031,0.281-0.067,0.611-0.131,1.193  c-0.668-0.392-1.189-0.696-1.725-1.01c-0.134,0.242-0.267,0.48-0.51,0.919c-0.109-0.422-0.274-0.693-0.199-0.851  c0.122-0.255,0.369-0.516,0.625-0.618c0.167-0.066,0.437,0.181,0.672,0.226C-120.424,229.8-120.051,229.815-119.521,229.871z"
     id="path3" /><path
     style="clip-rule:evenodd;fill:#2da0b7;fill-opacity:1;fill-rule:evenodd"
     d="m 46.314154,15.798369 c -0.176198,0.0056 -0.243383,0.08358 -0.367641,0.337791 -0.191516,0.390635 -0.359442,0.790643 -0.559319,1.175196 -0.229515,0.443072 -0.579033,0.760209 -1.071503,0.893967 -0.811666,0.219635 -1.730298,-0.017 -2.188568,-0.942671 -0.202917,-0.409632 -0.396082,-0.821518 -0.587599,-1.23647 -0.06763,-0.147438 -0.156352,-0.189493 -0.320509,-0.171253 -0.417992,0.04712 -0.422419,0.03601 -0.556176,0.452482 -0.150477,0.466632 -0.268514,0.946105 -0.450911,1.398297 -0.194555,0.48183 -0.58243,0.786108 -1.082501,0.919105 -0.806346,0.218875 -1.489221,0.02553 -1.996893,-0.663013 -0.256875,-0.348075 -0.503385,-0.707572 -0.73214,-1.074646 -0.135278,-0.217356 -0.301874,-0.228558 -0.51847,-0.180678 -0.213556,0.04712 -0.331463,0.143958 -0.353502,0.383352 -0.0418,0.443074 -0.104629,0.884371 -0.179108,1.322883 -0.122357,0.718187 -0.526286,1.194473 -1.225473,1.417149 -0.719707,0.228756 -1.346258,0.09253 -1.877486,-0.44934 -0.311597,-0.317673 -0.622609,-0.637316 -0.915963,-0.97095 -0.199116,-0.226477 -0.377588,-0.08979 -0.579743,-0.02671 -0.202156,0.06308 -0.210377,0.200599 -0.205817,0.372356 0.01444,0.457512 0.03872,0.916407 0.022,1.373159 -0.03875,1.057897 -0.83991,1.806583 -1.89477,1.800502 -0.54719,-0.0031 -0.969912,-0.289333 -1.382585,-0.600167 -0.237115,-0.177837 -0.476473,-0.353005 -0.699148,-0.548321 -0.228755,-0.202154 -0.405209,-0.07466 -0.611165,0.04085 -0.215076,0.120838 -0.187707,0.282049 -0.13983,0.469766 0.0456,0.176316 0.0927,0.354064 0.116263,0.53418 0.057,0.427872 0.189025,0.869413 0.133545,1.283604 -0.156557,1.170378 -1.505713,1.912551 -2.573493,1.390441 -0.440031,-0.214316 -0.8718,-0.445708 -1.310313,-0.664584 -0.07524,-0.03724 -0.173657,-0.08103 -0.245095,-0.06127 -0.329074,0.09196 -0.479813,0.40317 -0.358215,0.735284 0.141358,0.385313 0.312338,0.758616 0.443056,1.148488 0.227995,0.677909 0.09011,1.286095 -0.40692,1.803645 -0.501592,0.521351 -1.102127,0.714444 -1.802074,0.515328 -0.447632,-0.127678 -0.886147,-0.285834 -1.330738,-0.422631 -0.337434,-0.103358 -0.360777,-0.07659 -0.623734,0.238809 -0.164157,0.196076 -0.04416,0.339054 0.04399,0.493331 0.225717,0.396712 0.490299,0.776666 0.680294,1.189338 0.135311,0.293484 0.173053,0.601353 0.138259,0.897109 l 9.302596,9.302595 c 0.292032,-0.20637 0.646956,-0.328363 1.030655,-0.328363 0.763025,0 1.414137,0.479955 1.674813,1.156343 0.01216,0.02963 0.02155,0.05991 0.03141,0.08956 0.0044,0.0152 0.0096,0.03036 0.01413,0.04557 0.0069,0.02432 0.01354,0.04638 0.01885,0.0707 0.03648,0.142878 0.05656,0.293492 0.05656,0.447769 -2.9e-4,0.381697 -0.119947,0.734189 -0.320508,1.025941 l 1.561692,1.560121 c 2.219215,-4.362458 6.76197,-7.277547 11.927935,-7.220863 7.214546,0.07903 12.967762,5.948224 12.960162,13.11413 -0.0342,7.477501 -6.077209,13.330258 -13.411072,13.23982 -4.917882,-0.06201 -9.236598,-2.836927 -11.417322,-6.974196 l -1.597829,1.597827 c 0.0173,0.04595 0.03998,0.08822 0.05341,0.136689 0.06232,0.183154 0.09741,0.378447 0.09741,0.582884 0,0.998621 -0.803247,1.808358 -1.795789,1.808358 -0.258771,0 -0.505061,-0.05656 -0.727428,-0.15554 l -9.777066,9.777065 c -0.0079,0.04962 -0.0065,0.09784 -0.01885,0.147685 -0.0836,0.337434 -0.262879,0.653227 -0.417918,0.969381 -0.150476,0.307034 -0.323801,0.60548 -0.49176,0.903393 -0.123116,0.218875 0.03378,0.337681 0.150828,0.474479 0.108678,0.126917 0.193671,0.287434 0.416347,0.191676 0.383033,-0.166439 0.795348,-0.273996 1.156343,-0.479192 1.250937,-0.707547 2.656895,0.358744 2.590776,1.588402 -0.01899,0.357193 -0.144118,0.71162 -0.248237,1.058934 -0.104118,0.350354 -0.239965,0.691043 -0.367643,1.033796 -0.05092,0.136038 -0.01624,0.229666 0.08485,0.331507 0.345793,0.349593 0.392653,0.364776 0.809126,0.116262 0.146676,-0.08664 0.281376,-0.196316 0.425773,-0.287515 0.239395,-0.151998 0.471315,-0.323688 0.727428,-0.441484 0.918064,-0.422552 1.945995,-0.03692 2.394386,0.873542 0.221157,0.446871 0.185064,0.912001 0.105265,1.377871 -0.07372,0.427114 -0.168388,0.850208 -0.246666,1.27732 -0.01368,0.07372 -0.01611,0.168533 0.01885,0.227812 0.180877,0.298674 0.594627,0.357793 0.873543,0.135117 0.04484,-0.03496 0.08784,-0.0735 0.130403,-0.109978 0.333633,-0.290316 0.645991,-0.608709 1.003945,-0.862545 1.0617,-0.751626 2.65644,-0.01277 2.763598,1.288318 0.04484,0.544909 -0.0025,1.097011 -0.0047,1.644961 -0.0023,0.456751 7.88e-4,0.450808 0.42106,0.611166 0.168717,0.06384 0.301034,0.06083 0.422631,-0.0927 0.190755,-0.240914 0.386357,-0.477487 0.592312,-0.707002 0.219636,-0.243956 0.438012,-0.495019 0.685007,-0.708576 0.286516,-0.246994 0.652532,-0.356782 1.018086,-0.314223 0.907423,0.104878 1.581516,0.487957 1.773792,1.635535 0.07372,0.439271 0.09737,0.888478 0.142974,1.332309 0.03572,0.351113 0.382138,0.600242 0.719572,0.509042 0.05928,-0.01596 0.122051,-0.06621 0.15397,-0.119405 0.160356,-0.261435 0.316094,-0.525949 0.465051,-0.794986 0.234835,-0.423313 0.490874,-0.830545 0.908106,-1.093499 0.794946,-0.500073 2.296588,-0.263375 2.681901,1.10764 0.132998,0.47271 0.268748,0.94535 0.388066,1.421862 0.04256,0.170236 0.123614,0.241352 0.295371,0.270232 0.44991,0.07524 0.487,0.06733 0.672438,-0.359786 0.186957,-0.429392 0.337045,-0.875799 0.548321,-1.293031 0.320714,-0.634588 0.855162,-0.966238 1.569547,-0.966238 0.728067,0 1.306112,0.298765 1.648105,0.959953 0.226476,0.434712 0.407335,0.894156 0.606452,1.343307 0.155036,0.351873 0.206182,0.367934 0.567173,0.329935 0.230277,-0.02432 0.337147,-0.131485 0.388067,-0.350359 0.111716,-0.490191 0.210326,-0.98696 0.367643,-1.462712 0.405832,-1.220535 1.720291,-1.427951 2.441518,-1.118637 0.393672,0.169476 0.67317,0.464041 0.904964,0.807554 0.249276,0.368594 0.473995,0.75334 0.716431,1.126493 0.04712,0.07219 0.118009,0.157778 0.193248,0.177537 0.293354,0.07524 0.611633,-0.161056 0.648872,-0.465051 0.0099,-0.06763 0.0058,-0.137418 0.01413,-0.205816 0.06232,-0.509191 0.06892,-1.034607 0.202674,-1.525558 0.348834,-1.282097 1.959789,-1.734088 2.934851,-0.834264 0.398992,0.368593 0.734434,0.806868 1.106067,1.20662 0.07372,0.07904 0.174371,0.174547 0.267091,0.179107 0.325273,0.01596 0.555007,-0.234556 0.543606,-0.575028 -0.01131,-0.35659 -0.03798,-0.712938 -0.05184,-1.068362 l 0.970952,0.970952 1.608827,-1.608826 -5.33236,-5.332378 24.102539,-24.100967 -24.102539,-24.100967 5.332378,-5.332377 -1.608825,-1.608827 -1.186195,1.186196 c -0.0094,-0.115053 -0.01097,-0.231375 -0.0094,-0.345647 0.0053,-0.399753 0.04348,-0.798251 0.05184,-1.198764 0.0023,-0.103357 -0.0282,-0.242631 -0.09584,-0.30951 -0.226475,-0.221916 -0.504451,-0.202904 -0.741568,0.02357 -0.0988,0.09424 -0.188614,0.198092 -0.284372,0.29537 -0.272836,0.275115 -0.531432,0.566289 -0.823266,0.820124 -0.958342,0.832945 -2.69392,0.258342 -2.887717,-1.005515 -0.07758,-0.496285 -0.138631,-0.994824 -0.196391,-1.494134 -0.01899,-0.171757 -0.08075,-0.274194 -0.262377,-0.298514 -0.181636,-0.02431 -0.370322,-0.15562 -0.520039,0.07542 -0.136798,0.210516 -0.283862,0.415294 -0.432058,0.61745 -0.209756,0.284233 -0.404005,0.584434 -0.64416,0.840548 -0.744786,0.800266 -2.404001,0.596532 -2.853152,-0.515327 -0.110958,-0.274354 -0.190638,-0.560217 -0.276516,-0.843691 -0.07828,-0.250795 -0.145427,-0.506536 -0.218386,-0.75885 -0.04256,-0.151238 -0.143476,-0.214287 -0.298513,-0.232526 -0.08968,-0.01007 -0.159652,-0.01755 -0.218386,-0.01571 z m -7.987569,7.026045 c 0.319123,-0.02024 0.633219,0.05831 0.903394,0.197962 0.268275,0.139076 0.459277,0.459203 0.637874,0.728999 0.262955,0.398232 0.330351,0.842314 0.202674,1.315026 -0.307033,1.134659 -0.601175,2.274618 -0.911248,3.407757 -0.225717,0.825344 -0.671678,1.465991 -1.326025,1.913623 -0.395953,0.323754 -0.864532,0.568854 -1.390441,0.758851 -0.312354,0.112476 -0.618252,0.236872 -0.922246,0.36607 -1.10806,0.569989 -2.165613,1.232194 -3.164235,1.992179 -0.617108,0.469672 -1.208465,0.976129 -1.776935,1.50356 -0.818505,0.759226 -1.771793,1.050223 -2.856294,0.908108 -0.902864,-0.117798 -1.800931,-0.278738 -2.700754,-0.414776 -0.254595,-0.038 -0.51586,-0.03326 -0.765135,-0.08799 -0.459031,-0.09956 -0.791866,-0.389 -1.025941,-0.790274 -0.395192,-0.677907 -0.485007,-1.371101 0.04242,-2.267125 0.202916,-0.237876 0.530643,-0.654008 0.892396,-1.04008 0.607229,-0.648268 1.205859,-1.30766 1.860206,-1.905768 1.670449,-1.530611 3.478765,-2.875529 5.472207,-3.960791 1.542011,-0.839784 3.132512,-1.562261 4.804481,-2.09273 0.56315,-0.177837 1.134625,-0.317263 1.703094,-0.477621 0.106777,-0.03021 0.214133,-0.04824 0.320508,-0.05499 z m 10.617623,0.384923 c 0.110015,-0.0047 0.225671,-0.0024 0.348788,0.0063 0.288035,0.0722 0.779777,0.176922 1.261609,0.322079 0.77931,0.235332 1.563716,0.463456 2.323685,0.752565 l -1.608826,1.608827 9.077925,9.077926 c -0.328231,0.06757 -0.656336,0.13549 -0.985091,0.201104 -1.04498,0.208235 -1.981478,-0.03858 -2.784023,-0.741569 -1.335296,-1.169617 -2.794189,-2.156119 -4.38028,-2.942706 -0.284995,-0.14206 -0.574663,-0.273768 -0.867257,-0.402206 -0.252315,-0.103359 -0.505981,-0.201433 -0.765135,-0.281231 -0.395953,-0.121598 -0.74384,-0.295034 -1.044795,-0.51847 -0.636867,-0.402031 -1.081111,-0.984664 -1.343306,-1.742371 -0.284994,-0.823822 -0.533808,-1.662649 -0.802843,-2.491794 -0.076,-0.234836 -0.190579,-0.45813 -0.251378,-0.696005 -0.109438,-0.433952 -0.0068,-0.842082 0.232526,-1.214475 0.354437,-0.549945 0.818296,-0.904795 1.588401,-0.93796 z m -5.004014,7.739333 c 0.256874,0 0.500798,0.05594 0.722714,0.15397 0.106399,0.02812 0.20747,0.07752 0.303226,0.163397 0.0152,0.01368 0.0288,0.02798 0.04399,0.04242 0.440032,0.329833 0.727428,0.854262 0.727428,1.448571 0,0.999382 -0.805577,1.80993 -1.797359,1.80993 -0.994062,0 -1.797361,-0.810548 -1.797361,-1.80993 0,-0.998621 0.803299,-1.808358 1.797361,-1.808358 z m 14.774803,8.397631 c 0.992542,0 1.79736,0.810548 1.79736,1.809929 0,0.999383 -0.805578,1.808359 -1.79736,1.808359 -0.767586,0 -1.421891,-0.484065 -1.679526,-1.16577 -0.09956,-0.208237 -0.153766,-0.437605 -0.147686,-0.67244 0.0152,-0.51451 0.20282,-0.919037 0.510614,-1.197192 0.328314,-0.357193 0.796008,-0.582886 1.316598,-0.582886 z m 7.382689,1.379442 4.601808,4.601809 c 0.23975,2.086837 0.283457,4.178464 0.04714,6.27505 -0.139346,1.23364 -0.340995,2.453746 -0.63159,3.654423 l -3.781682,3.781683 c -0.05651,-0.05237 -0.114809,-0.101346 -0.16654,-0.163396 -0.745547,-0.901343 -1.505005,-1.792366 -2.248271,-2.69447 -0.712867,-0.863344 -0.950302,-1.852178 -0.710145,-2.944276 0.402032,-1.820167 0.574955,-3.659657 0.502757,-5.519343 -0.0304,-0.775186 -0.105602,-1.553008 -0.208959,-2.322112 -0.150477,-1.106541 0.157438,-2.054817 0.890825,-2.865721 0.555562,-0.613537 1.135387,-1.204227 1.704665,-1.803647 z m -7.382689,15.660915 c 0.991782,0 1.798933,0.807405 1.798931,1.806788 0,0.999381 -0.80791,1.809929 -1.798931,1.809929 -0.202916,0 -0.394203,-0.03509 -0.5766,-0.09741 -0.240916,-0.07752 -0.460192,-0.211647 -0.642589,-0.384923 -0.355673,-0.330595 -0.578172,-0.802446 -0.578172,-1.327596 7.61e-4,-0.998622 0.80406,-1.806788 1.797361,-1.806788 z m 0.53261,7.767614 c 0.214887,-0.0038 0.437106,0.01184 0.663011,0.0487 0.354169,0.05819 0.706056,0.130788 1.058935,0.197961 l -9.700089,9.70009 1.360589,1.360589 c -0.402895,0.139618 -0.808977,0.269905 -1.22076,0.386494 -0.538071,0.152757 -1.086621,0.267689 -1.62925,0.402207 -0.409632,0.101078 -0.817288,0.01489 -1.153201,-0.172823 -0.249276,-0.139837 -0.423339,-0.44719 -0.584456,-0.710145 -0.237876,-0.384554 -0.287678,-0.808351 -0.1524,-1.252182 0.0015,-0.0053 0.0032,-0.01354 0.0047,-0.01885 0.01368,-0.06461 0.02899,-0.128648 0.05028,-0.193247 0.05319,-0.167957 0.107055,-0.336373 0.160254,-0.504329 0.249276,-0.828386 0.493259,-1.657076 0.747853,-2.48394 0.118558,-0.386072 0.286974,-0.727166 0.504329,-1.022798 0.144398,-0.210516 0.314896,-0.403069 0.521612,-0.568746 0.347313,-0.278155 0.77687,-0.47843 1.195621,-0.642588 1.428014,-0.555548 2.784458,-1.242773 4.034634,-2.130436 0.721989,-0.51299 1.404643,-1.085051 2.106872,-1.62768 0.07904,-0.06156 0.162306,-0.119623 0.246665,-0.172822 0.54548,-0.389874 1.140133,-0.584126 1.784791,-0.595455 z m -30.43729,0.237238 c 0.74291,-0.0028 1.426435,0.253152 2.040883,0.766707 1.364175,1.139218 2.849034,2.089666 4.454124,2.839012 0.669548,0.312351 1.359687,0.587268 2.056593,0.834264 1.002423,0.354153 1.672239,1.032324 2.039314,2.015746 0.304753,0.818505 0.572178,1.651499 0.860972,2.476084 0.08207,0.234075 0.200972,0.454126 0.267091,0.68972 0.120838,0.433192 0.02836,0.844619 -0.202674,1.222331 -0.390633,0.639148 -0.929544,1.026687 -1.916766,0.978808 C 38.1203,76.148827 37.623691,76.056471 37.138819,75.921953 36.324114,75.697756 35.504864,75.485754 34.71144,75.199238 32.681518,74.467373 30.745028,73.534953 28.943863,72.330376 27.550808,71.397873 26.23438,70.373869 25.041202,69.19285 24.639929,68.796138 24.265357,68.372296 23.877003,67.962664 23.585169,67.654109 23.456551,67.249662 23.45123,66.86131 c -0.0039,-0.289556 0.176974,-0.595995 0.323651,-0.868829 0.215836,-0.401273 0.56042,-0.657063 1.01337,-0.760421 1.087542,-0.246995 2.171773,-0.50785 3.260074,-0.752567 0.260295,-0.05852 0.514355,-0.08707 0.761992,-0.08799 z m 15.062318,0.683437 c 0.993302,0 1.79736,0.811309 1.79736,1.80993 -0.0015,0.998621 -0.805626,1.808358 -1.798932,1.808358 -0.291073,0 -0.565929,-0.07094 -0.809125,-0.194819 -0.649788,-0.263715 -1.039416,-0.899657 -1.019657,-1.605684 0.02205,-0.828384 0.530649,-1.613181 1.406152,-1.765937 0.136038,-0.03269 0.278285,-0.05184 0.424202,-0.05184 z"
     id="path5002"
     inkscape:connector-curvature="0" /><path
     style="opacity:1;fill:#2da0b7;fill-opacity:1;stroke:none"
     d="m 16.269644,25.297355 -1.608826,1.608826 23.09388,23.093879 -23.09388,23.093879 1.608826,1.608825 L 40.97235,50.00006 16.269644,25.297355 Z"
     id="path5576"
     inkscape:connector-curvature="0" /><path
     inkscape:connector-curvature="0"
     id="path5590"
     d="M 6.1316805,25.297847 0.60807831,30.821449 19.78749,49.999785 0.60807831,69.179201 6.1316805,74.702804 30.834698,49.999785 6.1316805,25.297847 Z"
     style="opacity:1;fill:#2da0b7;fill-opacity:1;stroke:none" /><path
     inkscape:connector-curvature="0"
     id="path5601"
     d="M 68.348834,18.957916 61.407595,25.89916 85.509431,49.999647 61.407595,74.10149 68.348834,81.042735 99.391919,49.999647 68.348834,18.957916 Z"
     style="opacity:1;fill:#2da0b7;fill-opacity:1;stroke:none" /></svg>