<?xml version="1.0" encoding="UTF-8" standalone="no"?>
<svg
   xmlns:dc="http://purl.org/dc/elements/1.1/"
   xmlns:cc="http://creativecommons.org/ns#"
   xmlns:rdf="http://www.w3.org/1999/02/22-rdf-syntax-ns#"
   xmlns:svg="http://www.w3.org/2000/svg"
   xmlns="http://www.w3.org/2000/svg"
   xmlns:sodipodi="http://sodipodi.sourceforge.net/DTD/sodipodi-0.dtd"
   xmlns:inkscape="http://www.inkscape.org/namespaces/inkscape"
   width="22"
   height="22"
   viewBox="0 0 22 22"
   version="1.1"
   id="svg2"
   inkscape:version="0.91 r13725"
   sodipodi:docname="game_large.svg"
   inkscape:export-filename="Z:\projects\occam\Large-Icons\group_large.png"
   inkscape:export-xdpi="392.72726"
   inkscape:export-ydpi="392.72726">
  <metadata
     id="metadata14">
    <rdf:RDF>
      <cc:Work
         rdf:about="">
        <dc:format>image/svg+xml</dc:format>
        <dc:type
           rdf:resource="http://purl.org/dc/dcmitype/StillImage" />
        <dc:title>album_collection</dc:title>
      </cc:Work>
    </rdf:RDF>
  </metadata>
  <sodipodi:namedview
     pagecolor="#ffffff"
     bordercolor="#666666"
     borderopacity="1"
     objecttolerance="10"
     gridtolerance="10"
     guidetolerance="10"
     inkscape:pageopacity="0"
     inkscape:pageshadow="2"
     inkscape:window-width="1920"
     inkscape:window-height="1176"
     id="namedview12"
     showgrid="false"
     inkscape:zoom="22.627416"
     inkscape:cx="11.413989"
     inkscape:cy="-1.1350735"
     inkscape:window-x="0"
     inkscape:window-y="24"
     inkscape:window-maximized="1"
     inkscape:current-layer="svg2" />
  <title
     id="title4">album_collection</title>
  <description
     id="description6">Created with Sketch (http://www.bohemiancoding.com/sketch)</description>
  <defs
     id="defs8" />
  <g
     transform="matrix(0.22866326,0,0,0.22866326,-0.43304861,0.00889289)"
     id="g4"
     style="fill:#2da0b7;fill-opacity:1">
    <path
       inkscape:connector-curvature="0"
       d="m 76.985,33.19 c -9.328,0 -16.917,7.589 -16.917,16.917 0,9.328 7.589,16.917 16.917,16.917 9.328,0 16.917,-7.589 16.917,-16.917 0,-9.328 -7.589,-16.917 -16.917,-16.917 z m -9.219,20.829 c -1.952,0 -3.535,-1.583 -3.535,-3.536 0,-1.952 1.583,-3.535 3.535,-3.535 1.952,0 3.535,1.583 3.535,3.535 0,1.953 -1.583,3.536 -3.535,3.536 z m 9.151,7.071 c -1.952,0 -3.535,-1.583 -3.535,-3.536 0,-1.952 1.583,-3.535 3.535,-3.535 1.952,0 3.535,1.583 3.535,3.535 0,1.953 -1.583,3.536 -3.535,3.536 z m 0,-14.155 c -1.952,0 -3.535,-1.583 -3.535,-3.535 0,-1.953 1.583,-3.536 3.535,-3.536 1.952,0 3.535,1.583 3.535,3.536 0,1.952 -1.583,3.535 -3.535,3.535 z m 9.134,7.084 c -1.951,0 -3.535,-1.583 -3.535,-3.536 0,-1.952 1.584,-3.535 3.535,-3.535 1.953,0 3.535,1.583 3.535,3.535 0,1.953 -1.582,3.536 -3.535,3.536 z"
       id="path6"
       style="fill:#2da0b7;fill-opacity:1" />
    <path
       inkscape:connector-curvature="0"
       d="m 88.102,33.691 c -0.396,-0.382 -0.783,-1.104 -0.859,-1.607 0,0 0,0 -0.326,-0.352 -2.098,-2.263 -8.166,-2.323 -8.166,-2.323 -0.551,-0.006 -1.451,-0.01 -2,-0.01 l -8.5,0 c -0.551,0 -1,0.254 -1,0.565 0,0.311 -0.451,0.565 -1,0.565 l -32.5,0 c -0.55,0 -1,-0.254 -1,-0.565 0,-0.311 -0.45,-0.565 -1,-0.565 l -8.5,0 c -0.55,0 -1.45,0.004 -2,0.01 0,0 -6.069,0.061 -8.167,2.323 -0.326,0.352 -0.326,0.352 -0.326,0.352 -0.077,0.503 -0.464,1.226 -0.86,1.607 0,0 -9.683,6.208 -9.683,16.874 0,11.065 8.97,20.035 20.035,20.035 4.849,0 11.896,-4.088 11.896,-4.088 0.476,-0.276 0.865,-0.502 0.865,-0.502 0,0 0.451,0 1,0 l 27.977,0 c 0.549,0 1,0 1,0 0,0 0.391,0.226 0.865,0.502 0,0 7.047,4.088 11.896,4.088 11.064,0 20.035,-8.97 20.035,-20.035 C 97.785,39.898 88.102,33.691 88.102,33.691 Z M 30.833,52.482 c 0,0.55 -0.45,1 -1,1 l -3.417,0 c -0.55,0 -1,0.45 -1,1 l 0,3.417 c 0,0.55 -0.45,1 -1,1 l -4,0 c -0.55,0 -1,-0.45 -1,-1 l 0,-3.417 c 0,-0.55 -0.45,-1 -1,-1 l -3.416,0 c -0.55,0 -1,-0.45 -1,-1 l 0,-4 c 0,-0.55 0.45,-1 1,-1 l 3.417,0 c 0.55,0 1,-0.45 1,-1 l 0,-3.416 c 0,-0.55 0.45,-1 1,-1 l 4,0 c 0.55,0 1,0.45 1,1 l 0,3.416 c 0,0.55 0.45,1 1,1 l 3.417,0 c 0.55,0 1,0.45 1,1 l 0,4 z m 12.886,-0.358 -4.055,3.716 c -0.509,0.467 -1.3,0.432 -1.766,-0.077 -0.466,-0.509 -0.432,-1.3 0.077,-1.766 L 42.03,50.28 c 0.509,-0.466 1.3,-0.431 1.766,0.077 0.467,0.509 0.432,1.301 -0.077,1.767 z m 10.277,0.009 -4.055,3.716 c -0.509,0.467 -1.3,0.432 -1.766,-0.077 -0.466,-0.509 -0.432,-1.3 0.077,-1.766 l 4.055,-3.717 c 0.509,-0.466 1.3,-0.431 1.767,0.077 0.466,0.509 0.432,1.301 -0.078,1.767 z m 22.989,15.891 c -9.896,0 -17.917,-8.021 -17.917,-17.917 0,-9.896 8.022,-17.917 17.917,-17.917 9.895,0 17.917,8.021 17.917,17.917 0,9.896 -8.021,17.917 -17.917,17.917 z"
       id="path8"
       style="fill:#2da0b7;fill-opacity:1" />
  </g>
</svg>
