<?xml version="1.0" encoding="UTF-8" standalone="no"?>
<svg
   xmlns:dc="http://purl.org/dc/elements/1.1/"
   xmlns:cc="http://creativecommons.org/ns#"
   xmlns:rdf="http://www.w3.org/1999/02/22-rdf-syntax-ns#"
   xmlns:svg="http://www.w3.org/2000/svg"
   xmlns="http://www.w3.org/2000/svg"
   xmlns:sodipodi="http://sodipodi.sourceforge.net/DTD/sodipodi-0.dtd"
   xmlns:inkscape="http://www.inkscape.org/namespaces/inkscape"
   width="22"
   height="22"
   viewBox="0 0 22 22"
   version="1.1"
   id="svg2"
   inkscape:version="0.91 r13725"
   sodipodi:docname="paper.svg"
   inkscape:export-filename="Z:\projects\occam\Large-Icons\group_large.png"
   inkscape:export-xdpi="392.72726"
   inkscape:export-ydpi="392.72726">
  <metadata
     id="metadata14">
    <rdf:RDF>
      <cc:Work
         rdf:about="">
        <dc:format>image/svg+xml</dc:format>
        <dc:type
           rdf:resource="http://purl.org/dc/dcmitype/StillImage" />
        <dc:title>album_collection</dc:title>
      </cc:Work>
    </rdf:RDF>
  </metadata>
  <sodipodi:namedview
     pagecolor="#ffffff"
     bordercolor="#666666"
     borderopacity="1"
     objecttolerance="10"
     gridtolerance="10"
     guidetolerance="10"
     inkscape:pageopacity="0"
     inkscape:pageshadow="2"
     inkscape:window-width="1920"
     inkscape:window-height="1058"
     id="namedview12"
     showgrid="false"
     inkscape:zoom="11.313708"
     inkscape:cx="28.408422"
     inkscape:cy="10.866598"
     inkscape:window-x="-8"
     inkscape:window-y="-8"
     inkscape:window-maximized="1"
     inkscape:current-layer="svg2" />
  <title
     id="title4">album_collection</title>
  <description
     id="description6">Created with Sketch (http://www.bohemiancoding.com/sketch)</description>
  <defs
     id="defs8" />
  <path
     style="color:#000000;text-indent:0;text-transform:none;direction:ltr;block-progression:tb;baseline-shift:baseline;display:inline;overflow:visible;visibility:visible;fill:#6aa3ae;fill-opacity:1;stroke:none;marker:none;enable-background:accumulate"
     d="m 10.282933,6.1033729 c -0.4563156,0 -0.8312987,0.3815246 -0.8312987,0.8378447 l 0,7.3851434 c 0,0.456325 0.3749831,0.837845 0.8312987,0.837845 l 1.430227,0 c 0.456315,0 0.831299,-0.38152 0.831299,-0.837845 l 0,-7.3851434 c 0,-0.4563201 -0.374984,-0.8378447 -0.831299,-0.8378447 l -1.430227,0 z M 14.21524,8.057253 c -0.456316,0 -0.8313,0.3815306 -0.8313,0.8378447 l 0,5.4312633 c 0,0.456325 0.374984,0.837845 0.8313,0.837845 l 1.430227,0 c 0.45635,0 0.832935,-0.38152 0.832935,-0.837845 l 0,-5.4312633 c 0,-0.4563141 -0.376585,-0.8378447 -0.832935,-0.8378447 l -1.430227,0 z M 6.3506269,8.9638271 c -0.4563154,0 -0.8329355,0.3815287 -0.8329355,0.8378447 l 0,4.5246892 c 0,0.456325 0.3766201,0.837845 0.8329355,0.837845 l 1.4302271,0 c 0.4563155,0 0.8312991,-0.38152 0.8312991,-0.837845 l 0,-4.5246892 c 0,-0.456316 -0.3749836,-0.8378447 -0.8312991,-0.8378447 l -1.4302271,0 z"
     id="path6"
     inkscape:connector-curvature="0" />
  <path
     inkscape:connector-curvature="0"
     d="M 10.924384,0.40762562 C 9.1429247,0.41518255 7.3383836,0.87363856 5.6863261,1.8274924 4.5789404,2.4668133 3.6297403,3.2755482 2.8539493,4.2037462 1.4515917,5.8815726 0.62093288,7.9477522 0.43355458,10.089204 c -0.009642,0.109684 0.0286318,0.220463 0.10299552,0.30163 0.0744051,0.08117 0.18419643,0.132494 0.29427291,0.132423 l 0.96374379,0 c 0.1958203,0 0.3782739,-0.16557 0.3972684,-0.360484 C 2.456598,7.4187319 3.9973283,4.835197 6.5691448,3.3503547 10.560617,1.0458683 15.589906,2.2106734 18.192925,5.9031723 c 0.05661,0.080501 0.146686,0.1406789 0.242775,0.1618501 0.09609,0.021188 0.194353,0.00511 0.279559,-0.044141 l 0.838678,-0.4855503 c 0.09485,-0.054871 0.167317,-0.15055 0.191277,-0.2574888 0.024,-0.1069364 0.0033,-0.2261899 -0.05885,-0.3163434 -2.03795,-2.9437437 -5.361031,-4.56831149 -8.76198,-4.55387328 z m 9.291667,5.84867418 c -0.07325,-0.00188 -0.149951,0.014775 -0.213348,0.051498 l -0.838678,0.4855503 c -0.08487,0.049217 -0.154291,0.1345416 -0.18392,0.2280615 -0.02959,0.093525 -0.01906,0.1978621 0.02207,0.2869161 1.786467,3.8632073 0.549003,8.4708693 -2.935372,10.9175243 -0.08049,0.05657 -0.140662,0.139345 -0.16185,0.235419 -0.02119,0.09607 -0.0051,0.201718 0.04414,0.286916 l 0.48555,0.838678 c 0.05491,0.09487 0.150558,0.167264 0.257489,0.191277 0.106931,0.02399 0.226172,-0.0029 0.316343,-0.06621 4.258635,-2.937126 5.763813,-8.552327 3.553346,-13.2275674 -0.06245,-0.1319685 -0.199816,-0.2238358 -0.34577,-0.2280628 z M 0.82346619,11.413433 c -0.10941436,0 -0.219992,0.04472 -0.29427291,0.125066 -0.0742809,0.08035 -0.11152023,0.192513 -0.10299552,0.301629 0.12033923,1.522733 0.56922038,3.048526 1.38308264,4.458235 0.4777154,0.827425 1.0527889,1.562401 1.6994261,2.207047 0.077881,0.07757 0.1844034,0.122606 0.2942729,0.117709 0.1097455,-0.0049 0.2236336,-0.05557 0.2942729,-0.13978 L 4.7152255,17.7403 c 0.063232,-0.07508 0.099528,-0.174103 0.095639,-0.272202 -0.00414,-0.0981 -0.048725,-0.194974 -0.1177092,-0.264846 C 4.1774097,16.679635 3.7246016,16.082578 3.3394996,15.415544 2.6728747,14.260888 2.2933961,13.01815 2.1844784,11.773917 2.1758291,11.675795 2.132038,11.58291 2.0594124,11.516428 1.9867454,11.449922 1.8856994,11.413362 1.78721,11.413433 Z m 4.88493031,6.76092 c -0.1169459,0 -0.2337125,0.05027 -0.3089865,0.139779 l -0.62533,0.743039 c -0.070598,0.08402 -0.102269,0.200153 -0.088282,0.308987 0.014029,0.108834 0.072341,0.208757 0.1618501,0.272202 3.0415864,2.156315 7.1088979,2.610236 10.6379659,0.949031 0.09948,-0.04673 0.173092,-0.13785 0.205991,-0.242776 0.03286,-0.104926 0.02565,-0.221187 -0.02943,-0.316343 l -0.485551,-0.838678 c -0.04904,-0.08508 -0.134496,-0.14676 -0.228061,-0.176563 -0.09352,-0.0298 -0.197696,-0.02625 -0.286916,0.01471 -2.903329,1.335387 -6.2249986,0.966651 -8.732549,-0.779823 -0.065301,-0.0453 -0.141251,-0.07298 -0.2207015,-0.07356 z"
     style="color:#000000;text-indent:0;text-transform:none;direction:ltr;block-progression:tb;baseline-shift:baseline;display:inline;overflow:visible;visibility:visible;fill:#6aa3ae;fill-opacity:1;stroke:none;marker:none;enable-background:accumulate"
     visibility="visible"
     display="inline"
     overflow="visible"
     id="path5267"
     sodipodi:nodetypes="scscccscsccccccscccccccccccccscccccccccscccsccccccccccccc" />
</svg>
